%YAML 1.1
%TAG !u! tag:unity3d.com,2011:
--- !u!1 &3107525950305842841
GameObject:
  m_ObjectHideFlags: 0
  m_CorrespondingSourceObject: {fileID: 0}
  m_PrefabInstance: {fileID: 0}
  m_PrefabAsset: {fileID: 0}
  serializedVersion: 6
  m_Component:
  - component: {fileID: 1779972321733849159}
  - component: {fileID: 8088489418846800810}
  - component: {fileID: 1599730214535631790}
  m_Layer: 31
  m_Name: Layer1
  m_TagString: Untagged
  m_Icon: {fileID: 0}
  m_NavMeshLayer: 0
  m_StaticEditorFlags: 0
  m_IsActive: 1
--- !u!4 &1779972321733849159
Transform:
  m_ObjectHideFlags: 0
  m_CorrespondingSourceObject: {fileID: 0}
  m_PrefabInstance: {fileID: 0}
  m_PrefabAsset: {fileID: 0}
  m_GameObject: {fileID: 3107525950305842841}
  m_LocalRotation: {x: -0, y: -0, z: -0, w: 1}
  m_LocalPosition: {x: 0, y: 0, z: 0}
  m_LocalScale: {x: 1, y: 1, z: 1}
  m_Children: []
  m_Father: {fileID: 7772489583876624887}
  m_RootOrder: 0
  m_LocalEulerAnglesHint: {x: 0, y: 0, z: 0}
--- !u!1839735485 &8088489418846800810
Tilemap:
  m_ObjectHideFlags: 0
  m_CorrespondingSourceObject: {fileID: 0}
  m_PrefabInstance: {fileID: 0}
  m_PrefabAsset: {fileID: 0}
  m_GameObject: {fileID: 3107525950305842841}
  m_Enabled: 1
  m_Tiles:
  - first: {x: -4, y: -15, z: 0}
    second:
      m_TileIndex: 12
      m_TileSpriteIndex: 12
      m_TileMatrixIndex: 0
      m_TileColorIndex: 0
      m_ObjectToInstantiate: {fileID: 0}
      m_TileFlags: 1
      m_ColliderType: 1
  - first: {x: -3, y: -15, z: 0}
    second:
      m_TileIndex: 11
      m_TileSpriteIndex: 11
      m_TileMatrixIndex: 0
      m_TileColorIndex: 0
      m_ObjectToInstantiate: {fileID: 0}
      m_TileFlags: 1
      m_ColliderType: 1
  - first: {x: -2, y: -15, z: 0}
    second:
      m_TileIndex: 10
      m_TileSpriteIndex: 10
      m_TileMatrixIndex: 0
      m_TileColorIndex: 0
      m_ObjectToInstantiate: {fileID: 0}
      m_TileFlags: 1
      m_ColliderType: 1
  - first: {x: -1, y: -15, z: 0}
    second:
      m_TileIndex: 9
      m_TileSpriteIndex: 9
      m_TileMatrixIndex: 0
      m_TileColorIndex: 0
      m_ObjectToInstantiate: {fileID: 0}
      m_TileFlags: 1
      m_ColliderType: 1
  - first: {x: -4, y: -14, z: 0}
    second:
      m_TileIndex: 142
      m_TileSpriteIndex: 141
      m_TileMatrixIndex: 0
      m_TileColorIndex: 0
      m_ObjectToInstantiate: {fileID: 0}
      m_TileFlags: 1
      m_ColliderType: 1
  - first: {x: -3, y: -14, z: 0}
    second:
      m_TileIndex: 141
      m_TileSpriteIndex: 140
      m_TileMatrixIndex: 0
      m_TileColorIndex: 0
      m_ObjectToInstantiate: {fileID: 0}
      m_TileFlags: 1
      m_ColliderType: 1
  - first: {x: -2, y: -14, z: 0}
    second:
      m_TileIndex: 140
      m_TileSpriteIndex: 139
      m_TileMatrixIndex: 0
      m_TileColorIndex: 0
      m_ObjectToInstantiate: {fileID: 0}
      m_TileFlags: 1
      m_ColliderType: 1
  - first: {x: -1, y: -14, z: 0}
    second:
      m_TileIndex: 139
      m_TileSpriteIndex: 137
      m_TileMatrixIndex: 0
      m_TileColorIndex: 0
      m_ObjectToInstantiate: {fileID: 0}
      m_TileFlags: 1
      m_ColliderType: 1
  - first: {x: -4, y: -13, z: 0}
    second:
      m_TileIndex: 137
      m_TileSpriteIndex: 136
      m_TileMatrixIndex: 0
      m_TileColorIndex: 0
      m_ObjectToInstantiate: {fileID: 0}
      m_TileFlags: 1
      m_ColliderType: 1
  - first: {x: -3, y: -13, z: 0}
    second:
      m_TileIndex: 136
      m_TileSpriteIndex: 129
      m_TileMatrixIndex: 0
      m_TileColorIndex: 0
      m_ObjectToInstantiate: {fileID: 0}
      m_TileFlags: 1
      m_ColliderType: 1
  - first: {x: -2, y: -13, z: 0}
    second:
      m_TileIndex: 135
      m_TileSpriteIndex: 128
      m_TileMatrixIndex: 0
      m_TileColorIndex: 0
      m_ObjectToInstantiate: {fileID: 0}
      m_TileFlags: 1
      m_ColliderType: 1
  - first: {x: -4, y: -12, z: 0}
    second:
      m_TileIndex: 125
      m_TileSpriteIndex: 124
      m_TileMatrixIndex: 0
      m_TileColorIndex: 0
      m_ObjectToInstantiate: {fileID: 0}
      m_TileFlags: 1
      m_ColliderType: 1
  - first: {x: -3, y: -12, z: 0}
    second:
      m_TileIndex: 124
      m_TileSpriteIndex: 123
      m_TileMatrixIndex: 0
      m_TileColorIndex: 0
      m_ObjectToInstantiate: {fileID: 0}
      m_TileFlags: 1
      m_ColliderType: 1
  - first: {x: -2, y: -12, z: 0}
    second:
      m_TileIndex: 123
      m_TileSpriteIndex: 120
      m_TileMatrixIndex: 0
      m_TileColorIndex: 0
      m_ObjectToInstantiate: {fileID: 0}
      m_TileFlags: 1
      m_ColliderType: 1
  - first: {x: -1, y: -12, z: 0}
    second:
      m_TileIndex: 122
      m_TileSpriteIndex: 119
      m_TileMatrixIndex: 0
      m_TileColorIndex: 0
      m_ObjectToInstantiate: {fileID: 0}
      m_TileFlags: 1
      m_ColliderType: 1
  - first: {x: -4, y: -11, z: 0}
    second:
      m_TileIndex: 121
      m_TileSpriteIndex: 115
      m_TileMatrixIndex: 0
      m_TileColorIndex: 0
      m_ObjectToInstantiate: {fileID: 0}
      m_TileFlags: 1
      m_ColliderType: 1
  - first: {x: -3, y: -11, z: 0}
    second:
      m_TileIndex: 120
      m_TileSpriteIndex: 111
      m_TileMatrixIndex: 0
      m_TileColorIndex: 0
      m_ObjectToInstantiate: {fileID: 0}
      m_TileFlags: 1
      m_ColliderType: 1
  - first: {x: -2, y: -11, z: 0}
    second:
      m_TileIndex: 119
      m_TileSpriteIndex: 107
      m_TileMatrixIndex: 0
      m_TileColorIndex: 0
      m_ObjectToInstantiate: {fileID: 0}
      m_TileFlags: 1
      m_ColliderType: 1
  - first: {x: -1, y: -11, z: 0}
    second:
      m_TileIndex: 118
      m_TileSpriteIndex: 103
      m_TileMatrixIndex: 0
      m_TileColorIndex: 0
      m_ObjectToInstantiate: {fileID: 0}
      m_TileFlags: 1
      m_ColliderType: 1
  - first: {x: -4, y: -10, z: 0}
    second:
      m_TileIndex: 117
      m_TileSpriteIndex: 102
      m_TileMatrixIndex: 0
      m_TileColorIndex: 0
      m_ObjectToInstantiate: {fileID: 0}
      m_TileFlags: 1
      m_ColliderType: 1
  - first: {x: -3, y: -10, z: 0}
    second:
      m_TileIndex: 116
      m_TileSpriteIndex: 101
      m_TileMatrixIndex: 0
      m_TileColorIndex: 0
      m_ObjectToInstantiate: {fileID: 0}
      m_TileFlags: 1
      m_ColliderType: 1
  - first: {x: -2, y: -10, z: 0}
    second:
      m_TileIndex: 115
      m_TileSpriteIndex: 100
      m_TileMatrixIndex: 0
      m_TileColorIndex: 0
      m_ObjectToInstantiate: {fileID: 0}
      m_TileFlags: 1
      m_ColliderType: 1
  - first: {x: -1, y: -10, z: 0}
    second:
      m_TileIndex: 92
      m_TileSpriteIndex: 99
      m_TileMatrixIndex: 0
      m_TileColorIndex: 0
      m_ObjectToInstantiate: {fileID: 0}
      m_TileFlags: 1
      m_ColliderType: 1
  - first: {x: -4, y: -9, z: 0}
    second:
      m_TileIndex: 91
      m_TileSpriteIndex: 98
      m_TileMatrixIndex: 0
      m_TileColorIndex: 0
      m_ObjectToInstantiate: {fileID: 0}
      m_TileFlags: 1
      m_ColliderType: 1
  - first: {x: -3, y: -9, z: 0}
    second:
      m_TileIndex: 90
      m_TileSpriteIndex: 97
      m_TileMatrixIndex: 0
      m_TileColorIndex: 0
      m_ObjectToInstantiate: {fileID: 0}
      m_TileFlags: 1
      m_ColliderType: 1
  - first: {x: -2, y: -9, z: 0}
    second:
      m_TileIndex: 89
      m_TileSpriteIndex: 96
      m_TileMatrixIndex: 0
      m_TileColorIndex: 0
      m_ObjectToInstantiate: {fileID: 0}
      m_TileFlags: 1
      m_ColliderType: 1
  - first: {x: -1, y: -9, z: 0}
    second:
      m_TileIndex: 88
      m_TileSpriteIndex: 95
      m_TileMatrixIndex: 0
      m_TileColorIndex: 0
      m_ObjectToInstantiate: {fileID: 0}
      m_TileFlags: 1
      m_ColliderType: 1
  - first: {x: 0, y: -9, z: 0}
    second:
      m_TileIndex: 87
      m_TileSpriteIndex: 94
      m_TileMatrixIndex: 0
      m_TileColorIndex: 0
      m_ObjectToInstantiate: {fileID: 0}
      m_TileFlags: 1
      m_ColliderType: 1
  - first: {x: 1, y: -9, z: 0}
    second:
      m_TileIndex: 86
      m_TileSpriteIndex: 93
      m_TileMatrixIndex: 0
      m_TileColorIndex: 0
      m_ObjectToInstantiate: {fileID: 0}
      m_TileFlags: 1
      m_ColliderType: 1
  - first: {x: 2, y: -9, z: 0}
    second:
      m_TileIndex: 85
      m_TileSpriteIndex: 92
      m_TileMatrixIndex: 0
      m_TileColorIndex: 0
      m_ObjectToInstantiate: {fileID: 0}
      m_TileFlags: 1
      m_ColliderType: 1
  - first: {x: 3, y: -9, z: 0}
    second:
      m_TileIndex: 84
      m_TileSpriteIndex: 91
      m_TileMatrixIndex: 0
      m_TileColorIndex: 0
      m_ObjectToInstantiate: {fileID: 0}
      m_TileFlags: 1
      m_ColliderType: 1
  - first: {x: -4, y: -8, z: 0}
    second:
      m_TileIndex: 83
      m_TileSpriteIndex: 90
      m_TileMatrixIndex: 0
      m_TileColorIndex: 0
      m_ObjectToInstantiate: {fileID: 0}
      m_TileFlags: 1
      m_ColliderType: 1
  - first: {x: -3, y: -8, z: 0}
    second:
      m_TileIndex: 82
      m_TileSpriteIndex: 89
      m_TileMatrixIndex: 0
      m_TileColorIndex: 0
      m_ObjectToInstantiate: {fileID: 0}
      m_TileFlags: 1
      m_ColliderType: 1
  - first: {x: -2, y: -8, z: 0}
    second:
      m_TileIndex: 81
      m_TileSpriteIndex: 88
      m_TileMatrixIndex: 0
      m_TileColorIndex: 0
      m_ObjectToInstantiate: {fileID: 0}
      m_TileFlags: 1
      m_ColliderType: 1
  - first: {x: -1, y: -8, z: 0}
    second:
      m_TileIndex: 80
      m_TileSpriteIndex: 86
      m_TileMatrixIndex: 0
      m_TileColorIndex: 0
      m_ObjectToInstantiate: {fileID: 0}
      m_TileFlags: 1
      m_ColliderType: 1
  - first: {x: 0, y: -8, z: 0}
    second:
      m_TileIndex: 79
      m_TileSpriteIndex: 85
      m_TileMatrixIndex: 0
      m_TileColorIndex: 0
      m_ObjectToInstantiate: {fileID: 0}
      m_TileFlags: 1
      m_ColliderType: 1
  - first: {x: 1, y: -8, z: 0}
    second:
      m_TileIndex: 78
      m_TileSpriteIndex: 84
      m_TileMatrixIndex: 0
      m_TileColorIndex: 0
      m_ObjectToInstantiate: {fileID: 0}
      m_TileFlags: 1
      m_ColliderType: 1
  - first: {x: 2, y: -8, z: 0}
    second:
      m_TileIndex: 77
      m_TileSpriteIndex: 83
      m_TileMatrixIndex: 0
      m_TileColorIndex: 0
      m_ObjectToInstantiate: {fileID: 0}
      m_TileFlags: 1
      m_ColliderType: 1
  - first: {x: 3, y: -8, z: 0}
    second:
      m_TileIndex: 68
      m_TileSpriteIndex: 77
      m_TileMatrixIndex: 0
      m_TileColorIndex: 0
      m_ObjectToInstantiate: {fileID: 0}
      m_TileFlags: 1
      m_ColliderType: 1
  - first: {x: -4, y: -7, z: 0}
    second:
      m_TileIndex: 76
      m_TileSpriteIndex: 130
      m_TileMatrixIndex: 0
      m_TileColorIndex: 0
      m_ObjectToInstantiate: {fileID: 0}
      m_TileFlags: 1
      m_ColliderType: 1
  - first: {x: -3, y: -7, z: 0}
    second:
      m_TileIndex: 75
      m_TileSpriteIndex: 81
      m_TileMatrixIndex: 0
      m_TileColorIndex: 0
      m_ObjectToInstantiate: {fileID: 0}
      m_TileFlags: 1
      m_ColliderType: 1
  - first: {x: -2, y: -7, z: 0}
    second:
      m_TileIndex: 74
      m_TileSpriteIndex: 80
      m_TileMatrixIndex: 0
      m_TileColorIndex: 0
      m_ObjectToInstantiate: {fileID: 0}
      m_TileFlags: 1
      m_ColliderType: 1
  - first: {x: -1, y: -7, z: 0}
    second:
      m_TileIndex: 70
      m_TileSpriteIndex: 79
      m_TileMatrixIndex: 0
      m_TileColorIndex: 0
      m_ObjectToInstantiate: {fileID: 0}
      m_TileFlags: 1
      m_ColliderType: 1
  - first: {x: 0, y: -7, z: 0}
    second:
      m_TileIndex: 69
      m_TileSpriteIndex: 78
      m_TileMatrixIndex: 0
      m_TileColorIndex: 0
      m_ObjectToInstantiate: {fileID: 0}
      m_TileFlags: 1
      m_ColliderType: 1
  - first: {x: -4, y: -6, z: 0}
    second:
      m_TileIndex: 67
      m_TileSpriteIndex: 122
      m_TileMatrixIndex: 0
      m_TileColorIndex: 0
      m_ObjectToInstantiate: {fileID: 0}
      m_TileFlags: 1
      m_ColliderType: 1
  - first: {x: -3, y: -6, z: 0}
    second:
      m_TileIndex: 60
      m_TileSpriteIndex: 66
      m_TileMatrixIndex: 0
      m_TileColorIndex: 0
      m_ObjectToInstantiate: {fileID: 0}
      m_TileFlags: 1
      m_ColliderType: 1
  - first: {x: -2, y: -6, z: 0}
    second:
      m_TileIndex: 59
      m_TileSpriteIndex: 65
      m_TileMatrixIndex: 0
      m_TileColorIndex: 0
      m_ObjectToInstantiate: {fileID: 0}
      m_TileFlags: 1
      m_ColliderType: 1
  - first: {x: -1, y: -6, z: 0}
    second:
      m_TileIndex: 58
      m_TileSpriteIndex: 64
      m_TileMatrixIndex: 0
      m_TileColorIndex: 0
      m_ObjectToInstantiate: {fileID: 0}
      m_TileFlags: 1
      m_ColliderType: 1
  - first: {x: 0, y: -6, z: 0}
    second:
      m_TileIndex: 57
      m_TileSpriteIndex: 63
      m_TileMatrixIndex: 0
      m_TileColorIndex: 0
      m_ObjectToInstantiate: {fileID: 0}
      m_TileFlags: 1
      m_ColliderType: 1
  - first: {x: 1, y: -6, z: 0}
    second:
      m_TileIndex: 50
      m_TileSpriteIndex: 62
      m_TileMatrixIndex: 0
      m_TileColorIndex: 0
      m_ObjectToInstantiate: {fileID: 0}
      m_TileFlags: 1
      m_ColliderType: 1
  - first: {x: 2, y: -6, z: 0}
    second:
      m_TileIndex: 49
      m_TileSpriteIndex: 61
      m_TileMatrixIndex: 0
      m_TileColorIndex: 0
      m_ObjectToInstantiate: {fileID: 0}
      m_TileFlags: 1
      m_ColliderType: 1
  - first: {x: -4, y: -5, z: 0}
    second:
      m_TileIndex: 48
      m_TileSpriteIndex: 121
      m_TileMatrixIndex: 0
      m_TileColorIndex: 0
      m_ObjectToInstantiate: {fileID: 0}
      m_TileFlags: 1
      m_ColliderType: 1
  - first: {x: -3, y: -5, z: 0}
    second:
      m_TileIndex: 47
      m_TileSpriteIndex: 82
      m_TileMatrixIndex: 0
      m_TileColorIndex: 0
      m_ObjectToInstantiate: {fileID: 0}
      m_TileFlags: 1
      m_ColliderType: 1
  - first: {x: -2, y: -5, z: 0}
    second:
      m_TileIndex: 46
      m_TileSpriteIndex: 58
      m_TileMatrixIndex: 0
      m_TileColorIndex: 0
      m_ObjectToInstantiate: {fileID: 0}
      m_TileFlags: 1
      m_ColliderType: 1
  - first: {x: -1, y: -5, z: 0}
    second:
      m_TileIndex: 45
      m_TileSpriteIndex: 55
      m_TileMatrixIndex: 0
      m_TileColorIndex: 0
      m_ObjectToInstantiate: {fileID: 0}
      m_TileFlags: 1
      m_ColliderType: 1
  - first: {x: -4, y: -4, z: 0}
    second:
      m_TileIndex: 44
      m_TileSpriteIndex: 75
      m_TileMatrixIndex: 0
      m_TileColorIndex: 0
      m_ObjectToInstantiate: {fileID: 0}
      m_TileFlags: 1
      m_ColliderType: 1
  - first: {x: -3, y: -4, z: 0}
    second:
      m_TileIndex: 43
      m_TileSpriteIndex: 60
      m_TileMatrixIndex: 0
      m_TileColorIndex: 0
      m_ObjectToInstantiate: {fileID: 0}
      m_TileFlags: 1
      m_ColliderType: 1
  - first: {x: -2, y: -4, z: 0}
    second:
      m_TileIndex: 34
      m_TileSpriteIndex: 59
      m_TileMatrixIndex: 0
      m_TileColorIndex: 0
      m_ObjectToInstantiate: {fileID: 0}
      m_TileFlags: 1
      m_ColliderType: 1
  - first: {x: -1, y: -4, z: 0}
    second:
      m_TileIndex: 33
      m_TileSpriteIndex: 50
      m_TileMatrixIndex: 0
      m_TileColorIndex: 0
      m_ObjectToInstantiate: {fileID: 0}
      m_TileFlags: 1
      m_ColliderType: 1
  - first: {x: -4, y: -3, z: 0}
    second:
      m_TileIndex: 32
      m_TileSpriteIndex: 53
      m_TileMatrixIndex: 0
      m_TileColorIndex: 0
      m_ObjectToInstantiate: {fileID: 0}
      m_TileFlags: 1
      m_ColliderType: 1
  - first: {x: -3, y: -3, z: 0}
    second:
      m_TileIndex: 31
      m_TileSpriteIndex: 52
      m_TileMatrixIndex: 0
      m_TileColorIndex: 0
      m_ObjectToInstantiate: {fileID: 0}
      m_TileFlags: 1
      m_ColliderType: 1
  - first: {x: -2, y: -3, z: 0}
    second:
      m_TileIndex: 30
      m_TileSpriteIndex: 51
      m_TileMatrixIndex: 0
      m_TileColorIndex: 0
      m_ObjectToInstantiate: {fileID: 0}
      m_TileFlags: 1
      m_ColliderType: 1
  - first: {x: -1, y: -3, z: 0}
    second:
      m_TileIndex: 29
      m_TileSpriteIndex: 49
      m_TileMatrixIndex: 0
      m_TileColorIndex: 0
      m_ObjectToInstantiate: {fileID: 0}
      m_TileFlags: 1
      m_ColliderType: 1
  - first: {x: 0, y: -3, z: 0}
    second:
      m_TileIndex: 28
      m_TileSpriteIndex: 43
      m_TileMatrixIndex: 0
      m_TileColorIndex: 0
      m_ObjectToInstantiate: {fileID: 0}
      m_TileFlags: 1
      m_ColliderType: 1
  - first: {x: 1, y: -3, z: 0}
    second:
      m_TileIndex: 22
      m_TileSpriteIndex: 36
      m_TileMatrixIndex: 0
      m_TileColorIndex: 0
      m_ObjectToInstantiate: {fileID: 0}
      m_TileFlags: 1
      m_ColliderType: 1
  - first: {x: -4, y: -2, z: 0}
    second:
      m_TileIndex: 27
      m_TileSpriteIndex: 48
      m_TileMatrixIndex: 0
      m_TileColorIndex: 0
      m_ObjectToInstantiate: {fileID: 0}
      m_TileFlags: 1
      m_ColliderType: 1
  - first: {x: -3, y: -2, z: 0}
    second:
      m_TileIndex: 26
      m_TileSpriteIndex: 47
      m_TileMatrixIndex: 0
      m_TileColorIndex: 0
      m_ObjectToInstantiate: {fileID: 0}
      m_TileFlags: 1
      m_ColliderType: 1
  - first: {x: -2, y: -2, z: 0}
    second:
      m_TileIndex: 25
      m_TileSpriteIndex: 45
      m_TileMatrixIndex: 0
      m_TileColorIndex: 0
      m_ObjectToInstantiate: {fileID: 0}
      m_TileFlags: 1
      m_ColliderType: 1
  - first: {x: -1, y: -2, z: 0}
    second:
      m_TileIndex: 24
      m_TileSpriteIndex: 44
      m_TileMatrixIndex: 0
      m_TileColorIndex: 0
      m_ObjectToInstantiate: {fileID: 0}
      m_TileFlags: 1
      m_ColliderType: 1
  - first: {x: 0, y: -2, z: 0}
    second:
      m_TileIndex: 23
      m_TileSpriteIndex: 42
      m_TileMatrixIndex: 0
      m_TileColorIndex: 0
      m_ObjectToInstantiate: {fileID: 0}
      m_TileFlags: 1
      m_ColliderType: 1
  - first: {x: 1, y: -2, z: 0}
    second:
      m_TileIndex: 21
      m_TileSpriteIndex: 35
      m_TileMatrixIndex: 0
      m_TileColorIndex: 0
      m_ObjectToInstantiate: {fileID: 0}
      m_TileFlags: 1
      m_ColliderType: 1
  - first: {x: -4, y: -1, z: 0}
    second:
      m_TileIndex: 20
      m_TileSpriteIndex: 34
      m_TileMatrixIndex: 0
      m_TileColorIndex: 0
      m_ObjectToInstantiate: {fileID: 0}
      m_TileFlags: 1
      m_ColliderType: 1
  - first: {x: -3, y: -1, z: 0}
    second:
      m_TileIndex: 19
      m_TileSpriteIndex: 41
      m_TileMatrixIndex: 0
      m_TileColorIndex: 0
      m_ObjectToInstantiate: {fileID: 0}
      m_TileFlags: 1
      m_ColliderType: 1
  - first: {x: -2, y: -1, z: 0}
    second:
      m_TileIndex: 18
      m_TileSpriteIndex: 40
      m_TileMatrixIndex: 0
      m_TileColorIndex: 0
      m_ObjectToInstantiate: {fileID: 0}
      m_TileFlags: 1
      m_ColliderType: 1
  - first: {x: -1, y: -1, z: 0}
    second:
      m_TileIndex: 17
      m_TileSpriteIndex: 39
      m_TileMatrixIndex: 0
      m_TileColorIndex: 0
      m_ObjectToInstantiate: {fileID: 0}
      m_TileFlags: 1
      m_ColliderType: 1
  - first: {x: 0, y: -1, z: 0}
    second:
      m_TileIndex: 16
      m_TileSpriteIndex: 37
      m_TileMatrixIndex: 0
      m_TileColorIndex: 0
      m_ObjectToInstantiate: {fileID: 0}
      m_TileFlags: 1
      m_ColliderType: 1
  - first: {x: -4, y: 0, z: 0}
    second:
      m_TileIndex: 15
      m_TileSpriteIndex: 30
      m_TileMatrixIndex: 0
      m_TileColorIndex: 0
      m_ObjectToInstantiate: {fileID: 0}
      m_TileFlags: 1
      m_ColliderType: 1
  - first: {x: -3, y: 0, z: 0}
    second:
      m_TileIndex: 14
      m_TileSpriteIndex: 33
      m_TileMatrixIndex: 0
      m_TileColorIndex: 0
      m_ObjectToInstantiate: {fileID: 0}
      m_TileFlags: 1
      m_ColliderType: 1
  - first: {x: -2, y: 0, z: 0}
    second:
      m_TileIndex: 13
      m_TileSpriteIndex: 32
      m_TileMatrixIndex: 0
      m_TileColorIndex: 0
      m_ObjectToInstantiate: {fileID: 0}
      m_TileFlags: 1
      m_ColliderType: 1
  - first: {x: -4, y: 1, z: 0}
    second:
      m_TileIndex: 73
      m_TileSpriteIndex: 118
      m_TileMatrixIndex: 0
      m_TileColorIndex: 0
      m_ObjectToInstantiate: {fileID: 0}
      m_TileFlags: 1
      m_ColliderType: 1
  - first: {x: -3, y: 1, z: 0}
    second:
      m_TileIndex: 72
      m_TileSpriteIndex: 117
      m_TileMatrixIndex: 0
      m_TileColorIndex: 0
      m_ObjectToInstantiate: {fileID: 0}
      m_TileFlags: 1
      m_ColliderType: 1
  - first: {x: -2, y: 1, z: 0}
    second:
      m_TileIndex: 71
      m_TileSpriteIndex: 116
      m_TileMatrixIndex: 0
      m_TileColorIndex: 0
      m_ObjectToInstantiate: {fileID: 0}
      m_TileFlags: 1
      m_ColliderType: 1
  - first: {x: -1, y: 1, z: 0}
    second:
      m_TileIndex: 56
      m_TileSpriteIndex: 46
      m_TileMatrixIndex: 0
      m_TileColorIndex: 0
      m_ObjectToInstantiate: {fileID: 0}
      m_TileFlags: 1
      m_ColliderType: 1
  - first: {x: 0, y: 1, z: 0}
    second:
      m_TileIndex: 51
      m_TileSpriteIndex: 29
      m_TileMatrixIndex: 0
      m_TileColorIndex: 0
      m_ObjectToInstantiate: {fileID: 0}
      m_TileFlags: 1
      m_ColliderType: 1
  - first: {x: 1, y: 1, z: 0}
    second:
      m_TileIndex: 66
      m_TileSpriteIndex: 87
      m_TileMatrixIndex: 0
      m_TileColorIndex: 0
      m_ObjectToInstantiate: {fileID: 0}
      m_TileFlags: 1
      m_ColliderType: 1
  - first: {x: 2, y: 1, z: 0}
    second:
      m_TileIndex: 65
      m_TileSpriteIndex: 69
      m_TileMatrixIndex: 0
      m_TileColorIndex: 0
      m_ObjectToInstantiate: {fileID: 0}
      m_TileFlags: 1
      m_ColliderType: 1
  - first: {x: -4, y: 2, z: 0}
    second:
      m_TileIndex: 64
      m_TileSpriteIndex: 57
      m_TileMatrixIndex: 0
      m_TileColorIndex: 0
      m_ObjectToInstantiate: {fileID: 0}
      m_TileFlags: 1
      m_ColliderType: 1
  - first: {x: -3, y: 2, z: 0}
    second:
      m_TileIndex: 63
      m_TileSpriteIndex: 56
      m_TileMatrixIndex: 0
      m_TileColorIndex: 0
      m_ObjectToInstantiate: {fileID: 0}
      m_TileFlags: 1
      m_ColliderType: 1
  - first: {x: -2, y: 2, z: 0}
    second:
      m_TileIndex: 62
      m_TileSpriteIndex: 54
      m_TileMatrixIndex: 0
      m_TileColorIndex: 0
      m_ObjectToInstantiate: {fileID: 0}
      m_TileFlags: 1
      m_ColliderType: 1
  - first: {x: -1, y: 2, z: 0}
    second:
      m_TileIndex: 61
      m_TileSpriteIndex: 31
      m_TileMatrixIndex: 0
      m_TileColorIndex: 0
      m_ObjectToInstantiate: {fileID: 0}
      m_TileFlags: 1
      m_ColliderType: 1
  - first: {x: 0, y: 2, z: 0}
    second:
      m_TileIndex: 55
      m_TileSpriteIndex: 27
      m_TileMatrixIndex: 0
      m_TileColorIndex: 0
      m_ObjectToInstantiate: {fileID: 0}
      m_TileFlags: 1
      m_ColliderType: 1
  - first: {x: 1, y: 2, z: 0}
    second:
      m_TileIndex: 54
      m_TileSpriteIndex: 25
      m_TileMatrixIndex: 0
      m_TileColorIndex: 0
      m_ObjectToInstantiate: {fileID: 0}
      m_TileFlags: 1
      m_ColliderType: 1
  - first: {x: 2, y: 2, z: 0}
    second:
      m_TileIndex: 53
      m_TileSpriteIndex: 24
      m_TileMatrixIndex: 0
      m_TileColorIndex: 0
      m_ObjectToInstantiate: {fileID: 0}
      m_TileFlags: 1
      m_ColliderType: 1
  - first: {x: 3, y: 2, z: 0}
    second:
      m_TileIndex: 52
      m_TileSpriteIndex: 23
      m_TileMatrixIndex: 0
      m_TileColorIndex: 0
      m_ObjectToInstantiate: {fileID: 0}
      m_TileFlags: 1
      m_ColliderType: 1
  - first: {x: -4, y: 3, z: 0}
    second:
      m_TileIndex: 41
      m_TileSpriteIndex: 127
      m_TileMatrixIndex: 0
      m_TileColorIndex: 0
      m_ObjectToInstantiate: {fileID: 0}
      m_TileFlags: 1
      m_ColliderType: 1
  - first: {x: -3, y: 3, z: 0}
    second:
      m_TileIndex: 40
      m_TileSpriteIndex: 21
      m_TileMatrixIndex: 0
      m_TileColorIndex: 0
      m_ObjectToInstantiate: {fileID: 0}
      m_TileFlags: 1
      m_ColliderType: 1
  - first: {x: -2, y: 3, z: 0}
    second:
      m_TileIndex: 39
      m_TileSpriteIndex: 20
      m_TileMatrixIndex: 0
      m_TileColorIndex: 0
      m_ObjectToInstantiate: {fileID: 0}
      m_TileFlags: 1
      m_ColliderType: 1
  - first: {x: -1, y: 3, z: 0}
    second:
      m_TileIndex: 38
      m_TileSpriteIndex: 28
      m_TileMatrixIndex: 0
      m_TileColorIndex: 0
      m_ObjectToInstantiate: {fileID: 0}
      m_TileFlags: 1
      m_ColliderType: 1
  - first: {x: 0, y: 3, z: 0}
    second:
      m_TileIndex: 37
      m_TileSpriteIndex: 19
      m_TileMatrixIndex: 0
      m_TileColorIndex: 0
      m_ObjectToInstantiate: {fileID: 0}
      m_TileFlags: 1
      m_ColliderType: 1
  - first: {x: 1, y: 3, z: 0}
    second:
      m_TileIndex: 36
      m_TileSpriteIndex: 16
      m_TileMatrixIndex: 0
      m_TileColorIndex: 0
      m_ObjectToInstantiate: {fileID: 0}
      m_TileFlags: 1
      m_ColliderType: 1
  - first: {x: 2, y: 3, z: 0}
    second:
      m_TileIndex: 35
      m_TileSpriteIndex: 14
      m_TileMatrixIndex: 0
      m_TileColorIndex: 0
      m_ObjectToInstantiate: {fileID: 0}
      m_TileFlags: 1
      m_ColliderType: 1
  - first: {x: 3, y: 3, z: 0}
    second:
      m_TileIndex: 42
      m_TileSpriteIndex: 13
      m_TileMatrixIndex: 0
      m_TileColorIndex: 0
      m_ObjectToInstantiate: {fileID: 0}
      m_TileFlags: 1
      m_ColliderType: 1
  - first: {x: -4, y: 4, z: 0}
    second:
      m_TileIndex: 99
      m_TileSpriteIndex: 126
      m_TileMatrixIndex: 0
      m_TileColorIndex: 0
      m_ObjectToInstantiate: {fileID: 0}
      m_TileFlags: 1
      m_ColliderType: 1
  - first: {x: -3, y: 4, z: 0}
    second:
      m_TileIndex: 98
      m_TileSpriteIndex: 125
      m_TileMatrixIndex: 0
      m_TileColorIndex: 0
      m_ObjectToInstantiate: {fileID: 0}
      m_TileFlags: 1
      m_ColliderType: 1
  - first: {x: -2, y: 4, z: 0}
    second:
      m_TileIndex: 97
      m_TileSpriteIndex: 26
      m_TileMatrixIndex: 0
      m_TileColorIndex: 0
      m_ObjectToInstantiate: {fileID: 0}
      m_TileFlags: 1
      m_ColliderType: 1
  - first: {x: -1, y: 4, z: 0}
    second:
      m_TileIndex: 96
      m_TileSpriteIndex: 22
      m_TileMatrixIndex: 0
      m_TileColorIndex: 0
      m_ObjectToInstantiate: {fileID: 0}
      m_TileFlags: 1
      m_ColliderType: 1
  - first: {x: 0, y: 4, z: 0}
    second:
      m_TileIndex: 95
      m_TileSpriteIndex: 18
      m_TileMatrixIndex: 0
      m_TileColorIndex: 0
      m_ObjectToInstantiate: {fileID: 0}
      m_TileFlags: 1
      m_ColliderType: 1
  - first: {x: 1, y: 4, z: 0}
    second:
      m_TileIndex: 94
      m_TileSpriteIndex: 17
      m_TileMatrixIndex: 0
      m_TileColorIndex: 0
      m_ObjectToInstantiate: {fileID: 0}
      m_TileFlags: 1
      m_ColliderType: 1
  - first: {x: -4, y: 5, z: 0}
    second:
      m_TileIndex: 114
      m_TileSpriteIndex: 142
      m_TileMatrixIndex: 0
      m_TileColorIndex: 0
      m_ObjectToInstantiate: {fileID: 0}
      m_TileFlags: 1
      m_ColliderType: 1
  - first: {x: -3, y: 5, z: 0}
    second:
      m_TileIndex: 113
      m_TileSpriteIndex: 114
      m_TileMatrixIndex: 0
      m_TileColorIndex: 0
      m_ObjectToInstantiate: {fileID: 0}
      m_TileFlags: 1
      m_ColliderType: 1
  - first: {x: -2, y: 5, z: 0}
    second:
      m_TileIndex: 112
      m_TileSpriteIndex: 113
      m_TileMatrixIndex: 0
      m_TileColorIndex: 0
      m_ObjectToInstantiate: {fileID: 0}
      m_TileFlags: 1
      m_ColliderType: 1
  - first: {x: -1, y: 5, z: 0}
    second:
      m_TileIndex: 111
      m_TileSpriteIndex: 112
      m_TileMatrixIndex: 0
      m_TileColorIndex: 0
      m_ObjectToInstantiate: {fileID: 0}
      m_TileFlags: 1
      m_ColliderType: 1
  - first: {x: 0, y: 5, z: 0}
    second:
      m_TileIndex: 110
      m_TileSpriteIndex: 110
      m_TileMatrixIndex: 0
      m_TileColorIndex: 0
      m_ObjectToInstantiate: {fileID: 0}
      m_TileFlags: 1
      m_ColliderType: 1
  - first: {x: 1, y: 5, z: 0}
    second:
      m_TileIndex: 109
      m_TileSpriteIndex: 109
      m_TileMatrixIndex: 0
      m_TileColorIndex: 0
      m_ObjectToInstantiate: {fileID: 0}
      m_TileFlags: 1
      m_ColliderType: 1
  - first: {x: -4, y: 6, z: 0}
    second:
      m_TileIndex: 103
      m_TileSpriteIndex: 74
      m_TileMatrixIndex: 0
      m_TileColorIndex: 0
      m_ObjectToInstantiate: {fileID: 0}
      m_TileFlags: 1
      m_ColliderType: 1
  - first: {x: -3, y: 6, z: 0}
    second:
      m_TileIndex: 102
      m_TileSpriteIndex: 73
      m_TileMatrixIndex: 0
      m_TileColorIndex: 0
      m_ObjectToInstantiate: {fileID: 0}
      m_TileFlags: 1
      m_ColliderType: 1
  - first: {x: -2, y: 6, z: 0}
    second:
      m_TileIndex: 101
      m_TileSpriteIndex: 72
      m_TileMatrixIndex: 0
      m_TileColorIndex: 0
      m_ObjectToInstantiate: {fileID: 0}
      m_TileFlags: 1
      m_ColliderType: 1
  - first: {x: -1, y: 6, z: 0}
    second:
      m_TileIndex: 100
      m_TileSpriteIndex: 70
      m_TileMatrixIndex: 0
      m_TileColorIndex: 0
      m_ObjectToInstantiate: {fileID: 0}
      m_TileFlags: 1
      m_ColliderType: 1
  - first: {x: 0, y: 6, z: 0}
    second:
      m_TileIndex: 93
      m_TileSpriteIndex: 76
      m_TileMatrixIndex: 0
      m_TileColorIndex: 0
      m_ObjectToInstantiate: {fileID: 0}
      m_TileFlags: 1
      m_ColliderType: 1
  - first: {x: -4, y: 7, z: 0}
    second:
      m_TileIndex: 108
      m_TileSpriteIndex: 68
      m_TileMatrixIndex: 0
      m_TileColorIndex: 0
      m_ObjectToInstantiate: {fileID: 0}
      m_TileFlags: 1
      m_ColliderType: 1
  - first: {x: -3, y: 7, z: 0}
    second:
      m_TileIndex: 107
      m_TileSpriteIndex: 67
      m_TileMatrixIndex: 0
      m_TileColorIndex: 0
      m_ObjectToInstantiate: {fileID: 0}
      m_TileFlags: 1
      m_ColliderType: 1
  - first: {x: -2, y: 7, z: 0}
    second:
      m_TileIndex: 106
      m_TileSpriteIndex: 38
      m_TileMatrixIndex: 0
      m_TileColorIndex: 0
      m_ObjectToInstantiate: {fileID: 0}
      m_TileFlags: 1
      m_ColliderType: 1
  - first: {x: -1, y: 7, z: 0}
    second:
      m_TileIndex: 105
      m_TileSpriteIndex: 15
      m_TileMatrixIndex: 0
      m_TileColorIndex: 0
      m_ObjectToInstantiate: {fileID: 0}
      m_TileFlags: 1
      m_ColliderType: 1
  - first: {x: 0, y: 7, z: 0}
    second:
      m_TileIndex: 104
      m_TileSpriteIndex: 71
      m_TileMatrixIndex: 0
      m_TileColorIndex: 0
      m_ObjectToInstantiate: {fileID: 0}
      m_TileFlags: 1
      m_ColliderType: 1
  - first: {x: -4, y: 8, z: 0}
    second:
      m_TileIndex: 130
      m_TileSpriteIndex: 138
      m_TileMatrixIndex: 0
      m_TileColorIndex: 0
      m_ObjectToInstantiate: {fileID: 0}
      m_TileFlags: 1
      m_ColliderType: 1
  - first: {x: -3, y: 8, z: 0}
    second:
      m_TileIndex: 129
      m_TileSpriteIndex: 106
      m_TileMatrixIndex: 0
      m_TileColorIndex: 0
      m_ObjectToInstantiate: {fileID: 0}
      m_TileFlags: 1
      m_ColliderType: 1
  - first: {x: -2, y: 8, z: 0}
    second:
      m_TileIndex: 128
      m_TileSpriteIndex: 105
      m_TileMatrixIndex: 0
      m_TileColorIndex: 0
      m_ObjectToInstantiate: {fileID: 0}
      m_TileFlags: 1
      m_ColliderType: 1
  - first: {x: -1, y: 8, z: 0}
    second:
      m_TileIndex: 127
      m_TileSpriteIndex: 104
      m_TileMatrixIndex: 0
      m_TileColorIndex: 0
      m_ObjectToInstantiate: {fileID: 0}
      m_TileFlags: 1
      m_ColliderType: 1
  - first: {x: 0, y: 8, z: 0}
    second:
      m_TileIndex: 126
      m_TileSpriteIndex: 108
      m_TileMatrixIndex: 0
      m_TileColorIndex: 0
      m_ObjectToInstantiate: {fileID: 0}
      m_TileFlags: 1
      m_ColliderType: 1
  - first: {x: -4, y: 9, z: 0}
    second:
      m_TileIndex: 134
      m_TileSpriteIndex: 135
      m_TileMatrixIndex: 0
      m_TileColorIndex: 0
      m_ObjectToInstantiate: {fileID: 0}
      m_TileFlags: 1
      m_ColliderType: 1
  - first: {x: -3, y: 9, z: 0}
    second:
      m_TileIndex: 133
      m_TileSpriteIndex: 134
      m_TileMatrixIndex: 0
      m_TileColorIndex: 0
      m_ObjectToInstantiate: {fileID: 0}
      m_TileFlags: 1
      m_ColliderType: 1
  - first: {x: -2, y: 9, z: 0}
    second:
      m_TileIndex: 132
      m_TileSpriteIndex: 133
      m_TileMatrixIndex: 0
      m_TileColorIndex: 0
      m_ObjectToInstantiate: {fileID: 0}
      m_TileFlags: 1
      m_ColliderType: 1
  - first: {x: -1, y: 9, z: 0}
    second:
      m_TileIndex: 131
      m_TileSpriteIndex: 132
      m_TileMatrixIndex: 0
      m_TileColorIndex: 0
      m_ObjectToInstantiate: {fileID: 0}
      m_TileFlags: 1
      m_ColliderType: 1
  - first: {x: 0, y: 9, z: 0}
    second:
      m_TileIndex: 138
      m_TileSpriteIndex: 131
      m_TileMatrixIndex: 0
      m_TileColorIndex: 0
      m_ObjectToInstantiate: {fileID: 0}
      m_TileFlags: 1
      m_ColliderType: 1
  m_AnimatedTiles: {}
  m_TileAssetArray:
  - m_RefCount: 0
    m_Data: {fileID: 0}
  - m_RefCount: 0
    m_Data: {fileID: 0}
  - m_RefCount: 0
    m_Data: {fileID: 0}
  - m_RefCount: 0
    m_Data: {fileID: 0}
  - m_RefCount: 0
    m_Data: {fileID: 0}
  - m_RefCount: 0
    m_Data: {fileID: 0}
  - m_RefCount: 0
    m_Data: {fileID: 0}
  - m_RefCount: 0
    m_Data: {fileID: 0}
  - m_RefCount: 0
    m_Data: {fileID: 0}
  - m_RefCount: 1
    m_Data: {fileID: 11400000, guid: 751bf55df281f4631b281c53a150a6ee, type: 2}
  - m_RefCount: 1
    m_Data: {fileID: 11400000, guid: b704eddd4f480432bbbdbb7a0f68326e, type: 2}
  - m_RefCount: 1
    m_Data: {fileID: 11400000, guid: a8c27fea0922543e2af4a2beba87c61a, type: 2}
  - m_RefCount: 1
    m_Data: {fileID: 11400000, guid: fc36662fd472d4567b84639b672946c2, type: 2}
  - m_RefCount: 1
    m_Data: {fileID: 11400000, guid: b323ed4982bb940e68c3aea42b836e0d, type: 2}
  - m_RefCount: 1
    m_Data: {fileID: 11400000, guid: 3aba68e4dde8341b0aac2f0b8ae53af1, type: 2}
  - m_RefCount: 1
    m_Data: {fileID: 11400000, guid: f14bf8bfd19af4de684c48130b76910d, type: 2}
  - m_RefCount: 1
    m_Data: {fileID: 11400000, guid: 4992dbd1cdf6146f3a8d928bc16ac66c, type: 2}
  - m_RefCount: 1
    m_Data: {fileID: 11400000, guid: 6d3cf15bc006c468a864cf4003244227, type: 2}
  - m_RefCount: 1
    m_Data: {fileID: 11400000, guid: e3dd0cfd7554f4bf6b004b36a3e1287b, type: 2}
  - m_RefCount: 1
    m_Data: {fileID: 11400000, guid: 97b8d64e9c9924e99974b3700fafd722, type: 2}
  - m_RefCount: 1
    m_Data: {fileID: 11400000, guid: 4b65b105f89d04100964acc872acaa47, type: 2}
  - m_RefCount: 1
    m_Data: {fileID: 11400000, guid: 0af419acb3bd240bb83e7dbde417506e, type: 2}
  - m_RefCount: 1
    m_Data: {fileID: 11400000, guid: 6ce1f95f75ce2407f8a384e629589f11, type: 2}
  - m_RefCount: 1
    m_Data: {fileID: 11400000, guid: 4a50f2c8811ee42448d9d2458b61cfa0, type: 2}
  - m_RefCount: 1
    m_Data: {fileID: 11400000, guid: 4711fd33aaee44da9af3fa160940c0ab, type: 2}
  - m_RefCount: 1
    m_Data: {fileID: 11400000, guid: 57aed53cb53764ed8be5f190e3bd610e, type: 2}
  - m_RefCount: 1
    m_Data: {fileID: 11400000, guid: 1d51a96d13f8e47d797cbce85e1401e6, type: 2}
  - m_RefCount: 1
    m_Data: {fileID: 11400000, guid: 8d0c2e55be6ce434f9709fe8b1473012, type: 2}
  - m_RefCount: 1
    m_Data: {fileID: 11400000, guid: 6d80492e29c064dbdb188205f402f415, type: 2}
  - m_RefCount: 1
    m_Data: {fileID: 11400000, guid: 7591e63b31e234a749d7366b5cd57d56, type: 2}
  - m_RefCount: 1
    m_Data: {fileID: 11400000, guid: 24d818b5aa38442e7a0cd5c8aabff14d, type: 2}
  - m_RefCount: 1
    m_Data: {fileID: 11400000, guid: 1af77e838e43d4789a404e794c73cf8c, type: 2}
  - m_RefCount: 1
    m_Data: {fileID: 11400000, guid: f0d10b45bd88142cbb8316539cebf9ee, type: 2}
  - m_RefCount: 1
    m_Data: {fileID: 11400000, guid: 21720d3d77a674e418b3adb2ccfa4c48, type: 2}
  - m_RefCount: 1
    m_Data: {fileID: 11400000, guid: db631c434b77d43fc93e57e135d98e45, type: 2}
  - m_RefCount: 1
    m_Data: {fileID: 11400000, guid: 82a568c291c4d4c67a18e75615400725, type: 2}
  - m_RefCount: 1
    m_Data: {fileID: 11400000, guid: 6fb6638f30789401cbe359a6b39c2207, type: 2}
  - m_RefCount: 1
    m_Data: {fileID: 11400000, guid: 64195e47d49724639bb9fae2c6157fe1, type: 2}
  - m_RefCount: 1
    m_Data: {fileID: 11400000, guid: 50bc9b4fa83e14d27b56c998a99c2bca, type: 2}
  - m_RefCount: 1
    m_Data: {fileID: 11400000, guid: 45ed7cf5b2cbf4fdeb718d2b5b3ed4d9, type: 2}
  - m_RefCount: 1
    m_Data: {fileID: 11400000, guid: 4ffeafd96d02241b98e08a11f021d656, type: 2}
  - m_RefCount: 1
    m_Data: {fileID: 11400000, guid: ddd67c7c43ca44c56a8b72a786db3e40, type: 2}
  - m_RefCount: 1
    m_Data: {fileID: 11400000, guid: 1de07803c1ad148539cb51464bf7bac1, type: 2}
  - m_RefCount: 1
    m_Data: {fileID: 11400000, guid: 3557f6039fc09415dbf2f32df88a5324, type: 2}
  - m_RefCount: 1
    m_Data: {fileID: 11400000, guid: 43ee1ed8667b242bb89e9c97cae95654, type: 2}
  - m_RefCount: 1
    m_Data: {fileID: 11400000, guid: e29c50721d49847a9937c3c7330d192d, type: 2}
  - m_RefCount: 1
    m_Data: {fileID: 11400000, guid: ae31e5840cae74fd8818777d8aede053, type: 2}
  - m_RefCount: 1
    m_Data: {fileID: 11400000, guid: 7e60b3cb1add14bbfa2e4d6474e94c78, type: 2}
  - m_RefCount: 1
    m_Data: {fileID: 11400000, guid: f611bb383b8214f81b5e0f759698c38b, type: 2}
  - m_RefCount: 1
    m_Data: {fileID: 11400000, guid: 56ef290e7e938493a8002a337c4bbc2b, type: 2}
  - m_RefCount: 1
    m_Data: {fileID: 11400000, guid: ecfc53aa459c54544b65b122719d4f5e, type: 2}
  - m_RefCount: 1
    m_Data: {fileID: 11400000, guid: c02cae69f40904e22999837f97c9e119, type: 2}
  - m_RefCount: 1
    m_Data: {fileID: 11400000, guid: baf15ed82c60747edb44c6333616d5f1, type: 2}
  - m_RefCount: 1
    m_Data: {fileID: 11400000, guid: 9ba9286b39bbf4921af16fcc6a46bfe0, type: 2}
  - m_RefCount: 1
    m_Data: {fileID: 11400000, guid: 727c75b64cb32465a932e8406b8efa32, type: 2}
  - m_RefCount: 1
    m_Data: {fileID: 11400000, guid: 1e8172de3288345c08972caddcb22bf6, type: 2}
  - m_RefCount: 1
    m_Data: {fileID: 11400000, guid: e5cc54b53b98e4970bbfe0856fb3f695, type: 2}
  - m_RefCount: 1
    m_Data: {fileID: 11400000, guid: a7b9eec428b064011b7eb99ed1818acf, type: 2}
  - m_RefCount: 1
    m_Data: {fileID: 11400000, guid: d6a227f86a428411388f6b3d90e075a2, type: 2}
  - m_RefCount: 1
    m_Data: {fileID: 11400000, guid: 55798f7f86bb344c9a9f1efbc78f204c, type: 2}
  - m_RefCount: 1
    m_Data: {fileID: 11400000, guid: 6a2a31255ec0d495e8a2af18c183d1fc, type: 2}
  - m_RefCount: 1
    m_Data: {fileID: 11400000, guid: e8c3b2d92f042445f9e195f4f9bb629a, type: 2}
  - m_RefCount: 1
    m_Data: {fileID: 11400000, guid: c5284d02bd8e9446da12ebe5ed1951db, type: 2}
  - m_RefCount: 1
    m_Data: {fileID: 11400000, guid: ec281ecadac5d4998adcc2c0991d597a, type: 2}
  - m_RefCount: 1
    m_Data: {fileID: 11400000, guid: 24ec899811589439c8478e7cf9bffcf4, type: 2}
  - m_RefCount: 1
    m_Data: {fileID: 11400000, guid: e1d7031aec22a44788fde845dc81fe4f, type: 2}
  - m_RefCount: 1
    m_Data: {fileID: 11400000, guid: 9e3c9b3e4756f4937bbff0ca36753fff, type: 2}
  - m_RefCount: 1
    m_Data: {fileID: 11400000, guid: 3affad79d2ee04ef49544e0b17038901, type: 2}
  - m_RefCount: 1
    m_Data: {fileID: 11400000, guid: b6e0ea9ef4ef1411390fff562ad5e803, type: 2}
  - m_RefCount: 1
    m_Data: {fileID: 11400000, guid: a27f2066a7a8a43629d5b2e222993611, type: 2}
  - m_RefCount: 1
    m_Data: {fileID: 11400000, guid: 3c7d77785b7dd42229abd925c9283025, type: 2}
  - m_RefCount: 1
    m_Data: {fileID: 11400000, guid: 1fce3465ee95543d4b103ddd7e89cc8b, type: 2}
  - m_RefCount: 1
    m_Data: {fileID: 11400000, guid: cb3a2ce82aa7f4724a7b0475fe9e254c, type: 2}
  - m_RefCount: 1
    m_Data: {fileID: 11400000, guid: e167223908a574b89b5592e348dbd48f, type: 2}
  - m_RefCount: 1
    m_Data: {fileID: 11400000, guid: 3a140d1b47c924d7a86d68a95a4ae703, type: 2}
  - m_RefCount: 1
    m_Data: {fileID: 11400000, guid: 27882d3e2082a46689a81e55886255a1, type: 2}
  - m_RefCount: 1
    m_Data: {fileID: 11400000, guid: 87779a5f580444ea9ae99c862c5e3a39, type: 2}
  - m_RefCount: 1
    m_Data: {fileID: 11400000, guid: fdcec880498a14d4c95820b1a7d7efbc, type: 2}
  - m_RefCount: 1
    m_Data: {fileID: 11400000, guid: 8efd36f31d96f4648bc32961004cfdbd, type: 2}
  - m_RefCount: 1
    m_Data: {fileID: 11400000, guid: 31a3d3bc6f36c483a8b0acffabe5985c, type: 2}
  - m_RefCount: 1
    m_Data: {fileID: 11400000, guid: fc144a3a6c2fe4008afdfb9bae86cc88, type: 2}
  - m_RefCount: 1
    m_Data: {fileID: 11400000, guid: 935b775bbe3df47d4ae6798589483d1c, type: 2}
  - m_RefCount: 1
    m_Data: {fileID: 11400000, guid: 46ec4476f4d4146ce815c2498bd40712, type: 2}
  - m_RefCount: 1
    m_Data: {fileID: 11400000, guid: 890fa1524f083446395d3cc30b6c933c, type: 2}
  - m_RefCount: 1
    m_Data: {fileID: 11400000, guid: e23e91b2ce6ae4b0cacd3cffb5ac2c3c, type: 2}
  - m_RefCount: 1
    m_Data: {fileID: 11400000, guid: a49a915ba61264258b7350610ac4d0ef, type: 2}
  - m_RefCount: 1
    m_Data: {fileID: 11400000, guid: 55e2fb645fc514ddbbbdddd5c57ed5f6, type: 2}
  - m_RefCount: 1
    m_Data: {fileID: 11400000, guid: 092c44cd165c8414fa1873c79a045ec5, type: 2}
  - m_RefCount: 1
    m_Data: {fileID: 11400000, guid: fcfbd4795a34d4b1398c151549fb015b, type: 2}
  - m_RefCount: 1
    m_Data: {fileID: 11400000, guid: b257a7c37c1c348f1a0b03e0d425c038, type: 2}
  - m_RefCount: 1
    m_Data: {fileID: 11400000, guid: bee2de4d3141649719840eca808102f3, type: 2}
  - m_RefCount: 1
    m_Data: {fileID: 11400000, guid: 43af5b35a76464b65815a154e0893b90, type: 2}
  - m_RefCount: 1
    m_Data: {fileID: 11400000, guid: 80f67def15d354be88ba873566f43c4b, type: 2}
  - m_RefCount: 1
    m_Data: {fileID: 11400000, guid: c5c38cf04479940d6a6d4d433943bc9b, type: 2}
  - m_RefCount: 1
    m_Data: {fileID: 11400000, guid: c9c3b925daf754a54a68be6cb77426d6, type: 2}
  - m_RefCount: 1
    m_Data: {fileID: 11400000, guid: ff11c05e86ec9485ba216d251fc78f5b, type: 2}
  - m_RefCount: 1
    m_Data: {fileID: 11400000, guid: 567142662c8f241c7a59da5771fd827a, type: 2}
  - m_RefCount: 1
    m_Data: {fileID: 11400000, guid: c7089f98d39e449a580c65df64ae9f31, type: 2}
  - m_RefCount: 1
    m_Data: {fileID: 11400000, guid: 19e70dd3867bb4ca8a3e12288977d171, type: 2}
  - m_RefCount: 1
    m_Data: {fileID: 11400000, guid: 001109118ec524e92922ff63051d550f, type: 2}
  - m_RefCount: 1
    m_Data: {fileID: 11400000, guid: 588cd302d94544966b400f90b2f83d87, type: 2}
  - m_RefCount: 1
    m_Data: {fileID: 11400000, guid: 74bfd99d9274c482d9b0b1fbe0e3a7d9, type: 2}
  - m_RefCount: 1
    m_Data: {fileID: 11400000, guid: ea87b788671254b5089426aebe8679aa, type: 2}
  - m_RefCount: 1
    m_Data: {fileID: 11400000, guid: 62b993e941eda48789cdca351e65e77e, type: 2}
  - m_RefCount: 1
    m_Data: {fileID: 11400000, guid: 2f66d87d22f344a8faf088787aa5d117, type: 2}
  - m_RefCount: 1
    m_Data: {fileID: 11400000, guid: 79948499b82944d17ad359863013d5fa, type: 2}
  - m_RefCount: 1
    m_Data: {fileID: 11400000, guid: 224eae66ba0a8436e9c39de1f43c4c16, type: 2}
  - m_RefCount: 1
    m_Data: {fileID: 11400000, guid: 86f0b6fa775924a0ca7b6745b8cb56da, type: 2}
  - m_RefCount: 1
    m_Data: {fileID: 11400000, guid: c0cdf497178884352bf8c87aa0aa522f, type: 2}
  - m_RefCount: 1
    m_Data: {fileID: 11400000, guid: 020cffaf3a9e94ec1a0b026754482bd1, type: 2}
  - m_RefCount: 1
    m_Data: {fileID: 11400000, guid: d0dacd580bda5480a9d9f7cf59cf876a, type: 2}
  - m_RefCount: 1
    m_Data: {fileID: 11400000, guid: a1d52a25e02434d00bdba25fdf1a1e30, type: 2}
  - m_RefCount: 1
    m_Data: {fileID: 11400000, guid: 57e431399879641dabca71f6006f6513, type: 2}
  - m_RefCount: 1
    m_Data: {fileID: 11400000, guid: 939e053ca9c4d4dd087e166b94200a5c, type: 2}
  - m_RefCount: 1
    m_Data: {fileID: 11400000, guid: 029a4c1d38de94f0a896448c9eb8aadd, type: 2}
  - m_RefCount: 1
    m_Data: {fileID: 11400000, guid: 91ef747149df0491c8cec3535a850c2c, type: 2}
  - m_RefCount: 1
    m_Data: {fileID: 11400000, guid: 624458fb65181468dba7813af8d901b7, type: 2}
  - m_RefCount: 1
    m_Data: {fileID: 11400000, guid: 39d9114544a54496f902b0aaff55e0c6, type: 2}
  - m_RefCount: 1
    m_Data: {fileID: 11400000, guid: 58ec33c0f12c8476bb5c056c8369f01e, type: 2}
  - m_RefCount: 1
    m_Data: {fileID: 11400000, guid: 454a903a1c3994866bf2a2cbb61e20e5, type: 2}
  - m_RefCount: 1
    m_Data: {fileID: 11400000, guid: 1254f9b17525847088051f0ed20a00eb, type: 2}
  - m_RefCount: 1
    m_Data: {fileID: 11400000, guid: 5c20343f88f8c47529c15bdfc381e7a8, type: 2}
  - m_RefCount: 1
    m_Data: {fileID: 11400000, guid: 6f7d8d280bbeb440ea6a5c44f325968b, type: 2}
  - m_RefCount: 1
    m_Data: {fileID: 11400000, guid: 539a6c20d6c054dce88ea372eb7967e7, type: 2}
  - m_RefCount: 1
    m_Data: {fileID: 11400000, guid: f2cb0c3da14c448aeb6923a3ae307d6a, type: 2}
  - m_RefCount: 1
    m_Data: {fileID: 11400000, guid: b12413fd5367e4b62b2fc63e04462da0, type: 2}
  - m_RefCount: 1
    m_Data: {fileID: 11400000, guid: 360f8ab54956241d59853dc20b29cb92, type: 2}
  - m_RefCount: 1
    m_Data: {fileID: 11400000, guid: e2841abf69701417f938c9ecd8f5c609, type: 2}
  - m_RefCount: 1
    m_Data: {fileID: 11400000, guid: ced3918fb0967410f975ef0d7fdc9b8e, type: 2}
  - m_RefCount: 1
    m_Data: {fileID: 11400000, guid: e11e58ff0f0b74405b61b4e658a3a21d, type: 2}
  - m_RefCount: 1
    m_Data: {fileID: 11400000, guid: e3921be574ffa4fcaa92d22ba55caae3, type: 2}
  - m_RefCount: 1
    m_Data: {fileID: 11400000, guid: 31a79f1cf08284f5b96adf97564d1226, type: 2}
  - m_RefCount: 1
    m_Data: {fileID: 11400000, guid: 0d381466d51314795b72d9ca6c1c049f, type: 2}
  - m_RefCount: 1
    m_Data: {fileID: 11400000, guid: b984f622650484455845bc7599be17ec, type: 2}
  - m_RefCount: 1
    m_Data: {fileID: 11400000, guid: b9984785bd290499fb8949ea38e6f5ab, type: 2}
  - m_RefCount: 1
    m_Data: {fileID: 11400000, guid: 62722c925995e41b99e60b79dfde0eae, type: 2}
  - m_RefCount: 1
    m_Data: {fileID: 11400000, guid: 14d579367c3c64ea7a567aadd13c91c6, type: 2}
  - m_RefCount: 1
    m_Data: {fileID: 11400000, guid: 0819455d94c87460ba87ff1c6e7de05d, type: 2}
  - m_RefCount: 1
    m_Data: {fileID: 11400000, guid: f14cef3d5692341a185e5b9f220f87d9, type: 2}
  - m_RefCount: 1
    m_Data: {fileID: 11400000, guid: 2fdabedc2b5be40018633c0f0c67f79c, type: 2}
  - m_RefCount: 1
    m_Data: {fileID: 11400000, guid: 07e50ce76feed46adb11cda0ad02bdfc, type: 2}
  - m_RefCount: 1
    m_Data: {fileID: 11400000, guid: 7a612cbf3d7f64573a1f7b7a5d369484, type: 2}
  - m_RefCount: 1
    m_Data: {fileID: 11400000, guid: 432f67208362d470a80177c0198aa59e, type: 2}
  m_TileSpriteArray:
  - m_RefCount: 0
    m_Data: {fileID: 0}
  - m_RefCount: 0
    m_Data: {fileID: 0}
  - m_RefCount: 0
    m_Data: {fileID: 0}
  - m_RefCount: 0
    m_Data: {fileID: 0}
  - m_RefCount: 0
    m_Data: {fileID: 0}
  - m_RefCount: 0
    m_Data: {fileID: 0}
  - m_RefCount: 0
    m_Data: {fileID: 0}
  - m_RefCount: 0
    m_Data: {fileID: 0}
  - m_RefCount: 0
    m_Data: {fileID: 0}
  - m_RefCount: 1
    m_Data: {fileID: -278562398155281, guid: c2c6f13c1064f42ce874f059dc8de42f, type: 3}
  - m_RefCount: 1
    m_Data: {fileID: -3036865033725686047, guid: c2c6f13c1064f42ce874f059dc8de42f,
      type: 3}
  - m_RefCount: 1
    m_Data: {fileID: 2900241810010863361, guid: c2c6f13c1064f42ce874f059dc8de42f,
      type: 3}
  - m_RefCount: 1
    m_Data: {fileID: 7634501349779410152, guid: c2c6f13c1064f42ce874f059dc8de42f,
      type: 3}
  - m_RefCount: 1
    m_Data: {fileID: 1483669182768159405, guid: c2c6f13c1064f42ce874f059dc8de42f,
      type: 3}
  - m_RefCount: 1
    m_Data: {fileID: -182705052886540737, guid: c2c6f13c1064f42ce874f059dc8de42f,
      type: 3}
  - m_RefCount: 1
    m_Data: {fileID: -3208944529562537016, guid: c2c6f13c1064f42ce874f059dc8de42f,
      type: 3}
  - m_RefCount: 1
    m_Data: {fileID: 124419083544530652, guid: c2c6f13c1064f42ce874f059dc8de42f, type: 3}
  - m_RefCount: 1
    m_Data: {fileID: -6661540767820785326, guid: c2c6f13c1064f42ce874f059dc8de42f,
      type: 3}
  - m_RefCount: 1
    m_Data: {fileID: 3753282295954709502, guid: c2c6f13c1064f42ce874f059dc8de42f,
      type: 3}
  - m_RefCount: 1
    m_Data: {fileID: -7021225396654077617, guid: c2c6f13c1064f42ce874f059dc8de42f,
      type: 3}
  - m_RefCount: 1
    m_Data: {fileID: -1799001024256125302, guid: c2c6f13c1064f42ce874f059dc8de42f,
      type: 3}
  - m_RefCount: 1
    m_Data: {fileID: 9180564555056204931, guid: c2c6f13c1064f42ce874f059dc8de42f,
      type: 3}
  - m_RefCount: 1
    m_Data: {fileID: 3304508502380719263, guid: c2c6f13c1064f42ce874f059dc8de42f,
      type: 3}
  - m_RefCount: 1
    m_Data: {fileID: 8781906166439334717, guid: c2c6f13c1064f42ce874f059dc8de42f,
      type: 3}
  - m_RefCount: 1
    m_Data: {fileID: 8391205338162237508, guid: c2c6f13c1064f42ce874f059dc8de42f,
      type: 3}
  - m_RefCount: 1
    m_Data: {fileID: 3996384773088899454, guid: c2c6f13c1064f42ce874f059dc8de42f,
      type: 3}
  - m_RefCount: 1
    m_Data: {fileID: 976895058829480617, guid: c2c6f13c1064f42ce874f059dc8de42f, type: 3}
  - m_RefCount: 1
    m_Data: {fileID: -8097379437156283036, guid: c2c6f13c1064f42ce874f059dc8de42f,
      type: 3}
  - m_RefCount: 1
    m_Data: {fileID: 1479656540107811610, guid: c2c6f13c1064f42ce874f059dc8de42f,
      type: 3}
  - m_RefCount: 1
    m_Data: {fileID: -5177718206634264751, guid: c2c6f13c1064f42ce874f059dc8de42f,
      type: 3}
  - m_RefCount: 1
    m_Data: {fileID: 4521058440391508165, guid: c2c6f13c1064f42ce874f059dc8de42f,
      type: 3}
  - m_RefCount: 1
    m_Data: {fileID: 7556278193856780728, guid: c2c6f13c1064f42ce874f059dc8de42f,
      type: 3}
  - m_RefCount: 1
    m_Data: {fileID: 4497482419776195306, guid: c2c6f13c1064f42ce874f059dc8de42f,
      type: 3}
  - m_RefCount: 1
    m_Data: {fileID: -569396722728694732, guid: c2c6f13c1064f42ce874f059dc8de42f,
      type: 3}
  - m_RefCount: 1
    m_Data: {fileID: -4815371750499967477, guid: c2c6f13c1064f42ce874f059dc8de42f,
      type: 3}
  - m_RefCount: 1
    m_Data: {fileID: 8869501184389538906, guid: c2c6f13c1064f42ce874f059dc8de42f,
      type: 3}
  - m_RefCount: 1
    m_Data: {fileID: -8790549450493783411, guid: c2c6f13c1064f42ce874f059dc8de42f,
      type: 3}
  - m_RefCount: 1
    m_Data: {fileID: -6024448315270338705, guid: c2c6f13c1064f42ce874f059dc8de42f,
      type: 3}
  - m_RefCount: 1
    m_Data: {fileID: -4011854630590703745, guid: c2c6f13c1064f42ce874f059dc8de42f,
      type: 3}
  - m_RefCount: 1
    m_Data: {fileID: -2378152430481044229, guid: c2c6f13c1064f42ce874f059dc8de42f,
      type: 3}
  - m_RefCount: 1
    m_Data: {fileID: 5227595251224546765, guid: c2c6f13c1064f42ce874f059dc8de42f,
      type: 3}
  - m_RefCount: 1
    m_Data: {fileID: -4404455422308879469, guid: c2c6f13c1064f42ce874f059dc8de42f,
      type: 3}
  - m_RefCount: 1
    m_Data: {fileID: -156495118195790734, guid: c2c6f13c1064f42ce874f059dc8de42f,
      type: 3}
  - m_RefCount: 1
    m_Data: {fileID: -5793813125768792796, guid: c2c6f13c1064f42ce874f059dc8de42f,
      type: 3}
  - m_RefCount: 1
    m_Data: {fileID: -7560132411988832689, guid: c2c6f13c1064f42ce874f059dc8de42f,
      type: 3}
  - m_RefCount: 1
    m_Data: {fileID: -6211410041906125943, guid: c2c6f13c1064f42ce874f059dc8de42f,
      type: 3}
  - m_RefCount: 1
    m_Data: {fileID: -8505138614851485077, guid: c2c6f13c1064f42ce874f059dc8de42f,
      type: 3}
  - m_RefCount: 1
    m_Data: {fileID: -6684898928408800054, guid: c2c6f13c1064f42ce874f059dc8de42f,
      type: 3}
  - m_RefCount: 1
    m_Data: {fileID: 4489476659541098100, guid: c2c6f13c1064f42ce874f059dc8de42f,
      type: 3}
  - m_RefCount: 1
    m_Data: {fileID: -2777297282188281744, guid: c2c6f13c1064f42ce874f059dc8de42f,
      type: 3}
  - m_RefCount: 1
    m_Data: {fileID: -7817001005367091980, guid: c2c6f13c1064f42ce874f059dc8de42f,
      type: 3}
  - m_RefCount: 1
    m_Data: {fileID: -4342651113402424686, guid: c2c6f13c1064f42ce874f059dc8de42f,
      type: 3}
  - m_RefCount: 1
    m_Data: {fileID: 9047487611832653411, guid: c2c6f13c1064f42ce874f059dc8de42f,
      type: 3}
  - m_RefCount: 1
    m_Data: {fileID: 7487687322369879318, guid: c2c6f13c1064f42ce874f059dc8de42f,
      type: 3}
  - m_RefCount: 1
    m_Data: {fileID: 5581660289900468846, guid: c2c6f13c1064f42ce874f059dc8de42f,
      type: 3}
  - m_RefCount: 1
    m_Data: {fileID: 3870767492489023227, guid: c2c6f13c1064f42ce874f059dc8de42f,
      type: 3}
  - m_RefCount: 1
    m_Data: {fileID: 380272169920376085, guid: c2c6f13c1064f42ce874f059dc8de42f, type: 3}
  - m_RefCount: 1
    m_Data: {fileID: 2978730871905180894, guid: c2c6f13c1064f42ce874f059dc8de42f,
      type: 3}
  - m_RefCount: 1
    m_Data: {fileID: 5327924351813612937, guid: c2c6f13c1064f42ce874f059dc8de42f,
      type: 3}
  - m_RefCount: 1
    m_Data: {fileID: 4740097439177226550, guid: c2c6f13c1064f42ce874f059dc8de42f,
      type: 3}
  - m_RefCount: 1
    m_Data: {fileID: -970674678683786395, guid: c2c6f13c1064f42ce874f059dc8de42f,
      type: 3}
  - m_RefCount: 1
    m_Data: {fileID: -3476886142116315805, guid: c2c6f13c1064f42ce874f059dc8de42f,
      type: 3}
  - m_RefCount: 1
    m_Data: {fileID: -3503132459394962299, guid: c2c6f13c1064f42ce874f059dc8de42f,
      type: 3}
  - m_RefCount: 1
    m_Data: {fileID: 3248650559153124057, guid: c2c6f13c1064f42ce874f059dc8de42f,
      type: 3}
  - m_RefCount: 1
    m_Data: {fileID: -7064638509523453542, guid: c2c6f13c1064f42ce874f059dc8de42f,
      type: 3}
  - m_RefCount: 1
    m_Data: {fileID: 6811591575157584175, guid: c2c6f13c1064f42ce874f059dc8de42f,
      type: 3}
  - m_RefCount: 1
    m_Data: {fileID: 4855590893113707312, guid: c2c6f13c1064f42ce874f059dc8de42f,
      type: 3}
  - m_RefCount: 1
    m_Data: {fileID: -2508155239264619802, guid: c2c6f13c1064f42ce874f059dc8de42f,
      type: 3}
  - m_RefCount: 1
    m_Data: {fileID: -6513752992779213340, guid: c2c6f13c1064f42ce874f059dc8de42f,
      type: 3}
  - m_RefCount: 1
    m_Data: {fileID: -3607557546566316733, guid: c2c6f13c1064f42ce874f059dc8de42f,
      type: 3}
  - m_RefCount: 1
    m_Data: {fileID: 9075762219741384074, guid: c2c6f13c1064f42ce874f059dc8de42f,
      type: 3}
  - m_RefCount: 1
    m_Data: {fileID: -5252873217382880490, guid: c2c6f13c1064f42ce874f059dc8de42f,
      type: 3}
  - m_RefCount: 1
    m_Data: {fileID: 8526119350298727940, guid: c2c6f13c1064f42ce874f059dc8de42f,
      type: 3}
  - m_RefCount: 1
    m_Data: {fileID: -4493082273111320753, guid: c2c6f13c1064f42ce874f059dc8de42f,
      type: 3}
  - m_RefCount: 1
    m_Data: {fileID: -8409226182179716027, guid: c2c6f13c1064f42ce874f059dc8de42f,
      type: 3}
  - m_RefCount: 1
    m_Data: {fileID: -9100564111040711317, guid: c2c6f13c1064f42ce874f059dc8de42f,
      type: 3}
  - m_RefCount: 1
    m_Data: {fileID: 2251228257789404847, guid: c2c6f13c1064f42ce874f059dc8de42f,
      type: 3}
  - m_RefCount: 1
    m_Data: {fileID: 3601316550506966943, guid: c2c6f13c1064f42ce874f059dc8de42f,
      type: 3}
  - m_RefCount: 1
    m_Data: {fileID: 8328037019466889457, guid: c2c6f13c1064f42ce874f059dc8de42f,
      type: 3}
  - m_RefCount: 1
    m_Data: {fileID: 3565779782014266533, guid: c2c6f13c1064f42ce874f059dc8de42f,
      type: 3}
  - m_RefCount: 1
    m_Data: {fileID: 753610581219340947, guid: c2c6f13c1064f42ce874f059dc8de42f, type: 3}
  - m_RefCount: 1
    m_Data: {fileID: -8949843703089118649, guid: c2c6f13c1064f42ce874f059dc8de42f,
      type: 3}
  - m_RefCount: 1
    m_Data: {fileID: 1884649854258484285, guid: c2c6f13c1064f42ce874f059dc8de42f,
      type: 3}
  - m_RefCount: 1
    m_Data: {fileID: 820204841626193168, guid: c2c6f13c1064f42ce874f059dc8de42f, type: 3}
  - m_RefCount: 1
    m_Data: {fileID: -2675947114301490684, guid: c2c6f13c1064f42ce874f059dc8de42f,
      type: 3}
  - m_RefCount: 1
    m_Data: {fileID: 7259721417372696846, guid: c2c6f13c1064f42ce874f059dc8de42f,
      type: 3}
  - m_RefCount: 1
    m_Data: {fileID: 5226099149143811364, guid: c2c6f13c1064f42ce874f059dc8de42f,
      type: 3}
  - m_RefCount: 1
    m_Data: {fileID: 5241954528426270803, guid: c2c6f13c1064f42ce874f059dc8de42f,
      type: 3}
  - m_RefCount: 1
    m_Data: {fileID: -542224406762323978, guid: c2c6f13c1064f42ce874f059dc8de42f,
      type: 3}
  - m_RefCount: 1
    m_Data: {fileID: 5070003302699947925, guid: c2c6f13c1064f42ce874f059dc8de42f,
      type: 3}
  - m_RefCount: 1
    m_Data: {fileID: -8722415497291795605, guid: c2c6f13c1064f42ce874f059dc8de42f,
      type: 3}
  - m_RefCount: 1
    m_Data: {fileID: -2377977722754950285, guid: c2c6f13c1064f42ce874f059dc8de42f,
      type: 3}
  - m_RefCount: 1
    m_Data: {fileID: -6641505808713320799, guid: c2c6f13c1064f42ce874f059dc8de42f,
      type: 3}
  - m_RefCount: 1
    m_Data: {fileID: -6399207996696765366, guid: c2c6f13c1064f42ce874f059dc8de42f,
      type: 3}
  - m_RefCount: 1
    m_Data: {fileID: 7502159563228023237, guid: c2c6f13c1064f42ce874f059dc8de42f,
      type: 3}
  - m_RefCount: 1
    m_Data: {fileID: 2260494863240575035, guid: c2c6f13c1064f42ce874f059dc8de42f,
      type: 3}
  - m_RefCount: 1
    m_Data: {fileID: -1746291613760527707, guid: c2c6f13c1064f42ce874f059dc8de42f,
      type: 3}
  - m_RefCount: 1
    m_Data: {fileID: 2677338133113506003, guid: c2c6f13c1064f42ce874f059dc8de42f,
      type: 3}
  - m_RefCount: 1
    m_Data: {fileID: -333197982513583069, guid: c2c6f13c1064f42ce874f059dc8de42f,
      type: 3}
  - m_RefCount: 1
    m_Data: {fileID: 3974610589716098309, guid: c2c6f13c1064f42ce874f059dc8de42f,
      type: 3}
  - m_RefCount: 1
    m_Data: {fileID: 4415384550935122048, guid: c2c6f13c1064f42ce874f059dc8de42f,
      type: 3}
  - m_RefCount: 1
    m_Data: {fileID: -4719831684951329688, guid: c2c6f13c1064f42ce874f059dc8de42f,
      type: 3}
  - m_RefCount: 1
    m_Data: {fileID: -3215507742305600976, guid: c2c6f13c1064f42ce874f059dc8de42f,
      type: 3}
  - m_RefCount: 1
    m_Data: {fileID: 8424889714709581759, guid: c2c6f13c1064f42ce874f059dc8de42f,
      type: 3}
  - m_RefCount: 1
    m_Data: {fileID: -6042449473105577112, guid: c2c6f13c1064f42ce874f059dc8de42f,
      type: 3}
  - m_RefCount: 1
    m_Data: {fileID: 7984856118988485436, guid: c2c6f13c1064f42ce874f059dc8de42f,
      type: 3}
  - m_RefCount: 1
    m_Data: {fileID: -4496374145948270690, guid: c2c6f13c1064f42ce874f059dc8de42f,
      type: 3}
  - m_RefCount: 1
    m_Data: {fileID: -8306792352246742285, guid: c2c6f13c1064f42ce874f059dc8de42f,
      type: 3}
  - m_RefCount: 1
    m_Data: {fileID: -4362432869732178499, guid: c2c6f13c1064f42ce874f059dc8de42f,
      type: 3}
  - m_RefCount: 1
    m_Data: {fileID: -875129436361339683, guid: c2c6f13c1064f42ce874f059dc8de42f,
      type: 3}
  - m_RefCount: 1
    m_Data: {fileID: 7255691388582367790, guid: c2c6f13c1064f42ce874f059dc8de42f,
      type: 3}
  - m_RefCount: 1
    m_Data: {fileID: -1086703318264570591, guid: c2c6f13c1064f42ce874f059dc8de42f,
      type: 3}
  - m_RefCount: 1
    m_Data: {fileID: -2000600501889248448, guid: c2c6f13c1064f42ce874f059dc8de42f,
      type: 3}
  - m_RefCount: 1
    m_Data: {fileID: -5887454643195077821, guid: c2c6f13c1064f42ce874f059dc8de42f,
      type: 3}
  - m_RefCount: 1
    m_Data: {fileID: -5354985530792406718, guid: c2c6f13c1064f42ce874f059dc8de42f,
      type: 3}
  - m_RefCount: 1
    m_Data: {fileID: 4618490592915863366, guid: c2c6f13c1064f42ce874f059dc8de42f,
      type: 3}
  - m_RefCount: 1
    m_Data: {fileID: -3213521512138771430, guid: c2c6f13c1064f42ce874f059dc8de42f,
      type: 3}
  - m_RefCount: 1
    m_Data: {fileID: 7021454361747593408, guid: c2c6f13c1064f42ce874f059dc8de42f,
      type: 3}
  - m_RefCount: 1
    m_Data: {fileID: 5691760292817942818, guid: c2c6f13c1064f42ce874f059dc8de42f,
      type: 3}
  - m_RefCount: 1
    m_Data: {fileID: 7456918965417610942, guid: c2c6f13c1064f42ce874f059dc8de42f,
      type: 3}
  - m_RefCount: 1
    m_Data: {fileID: -2065421884895396849, guid: c2c6f13c1064f42ce874f059dc8de42f,
      type: 3}
  - m_RefCount: 1
    m_Data: {fileID: 7905155318164776485, guid: c2c6f13c1064f42ce874f059dc8de42f,
      type: 3}
  - m_RefCount: 1
    m_Data: {fileID: -6433469075426699516, guid: c2c6f13c1064f42ce874f059dc8de42f,
      type: 3}
  - m_RefCount: 1
    m_Data: {fileID: -7696834154409743878, guid: c2c6f13c1064f42ce874f059dc8de42f,
      type: 3}
  - m_RefCount: 1
    m_Data: {fileID: -6769760342047261791, guid: c2c6f13c1064f42ce874f059dc8de42f,
      type: 3}
  - m_RefCount: 1
    m_Data: {fileID: -7097129767239230564, guid: c2c6f13c1064f42ce874f059dc8de42f,
      type: 3}
  - m_RefCount: 1
    m_Data: {fileID: -7064678448887814803, guid: c2c6f13c1064f42ce874f059dc8de42f,
      type: 3}
  - m_RefCount: 1
    m_Data: {fileID: -6270246268205735052, guid: c2c6f13c1064f42ce874f059dc8de42f,
      type: 3}
  - m_RefCount: 1
    m_Data: {fileID: 2277695427991723676, guid: c2c6f13c1064f42ce874f059dc8de42f,
      type: 3}
  - m_RefCount: 1
    m_Data: {fileID: 1250176666992840866, guid: c2c6f13c1064f42ce874f059dc8de42f,
      type: 3}
  - m_RefCount: 1
    m_Data: {fileID: 7765193113311522325, guid: c2c6f13c1064f42ce874f059dc8de42f,
      type: 3}
  - m_RefCount: 1
    m_Data: {fileID: 6026623533269715761, guid: c2c6f13c1064f42ce874f059dc8de42f,
      type: 3}
  - m_RefCount: 1
    m_Data: {fileID: 5203505420124694422, guid: c2c6f13c1064f42ce874f059dc8de42f,
      type: 3}
  - m_RefCount: 1
    m_Data: {fileID: 2778183734726076818, guid: c2c6f13c1064f42ce874f059dc8de42f,
      type: 3}
  - m_RefCount: 1
    m_Data: {fileID: -3690875001263890429, guid: c2c6f13c1064f42ce874f059dc8de42f,
      type: 3}
  - m_RefCount: 1
    m_Data: {fileID: 192311912173197005, guid: c2c6f13c1064f42ce874f059dc8de42f, type: 3}
  - m_RefCount: 1
    m_Data: {fileID: 1568630094213749594, guid: c2c6f13c1064f42ce874f059dc8de42f,
      type: 3}
  - m_RefCount: 1
    m_Data: {fileID: 1802864115867560338, guid: c2c6f13c1064f42ce874f059dc8de42f,
      type: 3}
  - m_RefCount: 1
    m_Data: {fileID: 5667362141084502162, guid: c2c6f13c1064f42ce874f059dc8de42f,
      type: 3}
  - m_RefCount: 1
    m_Data: {fileID: -4928330380910440287, guid: c2c6f13c1064f42ce874f059dc8de42f,
      type: 3}
  - m_RefCount: 1
    m_Data: {fileID: -5395408258200798214, guid: c2c6f13c1064f42ce874f059dc8de42f,
      type: 3}
  - m_RefCount: 1
    m_Data: {fileID: -3569612119444065989, guid: c2c6f13c1064f42ce874f059dc8de42f,
      type: 3}
  - m_RefCount: 1
    m_Data: {fileID: 7831774876618432154, guid: c2c6f13c1064f42ce874f059dc8de42f,
      type: 3}
  m_TileMatrixArray:
  - m_RefCount: 134
    m_Data:
      e00: 1
      e01: 0
      e02: 0
      e03: 0
      e10: 0
      e11: 1
      e12: 0
      e13: 0
      e20: 0
      e21: 0
      e22: 1
      e23: 0
      e30: 0
      e31: 0
      e32: 0
      e33: 1
  m_TileColorArray:
  - m_RefCount: 134
    m_Data: {r: 1, g: 1, b: 1, a: 1}
  - m_RefCount: 0
    m_Data: {r: 0.8904778, g: 0.3642425, b: 0.4909072, a: 1}
  - m_RefCount: 0
    m_Data: {r: 0.8311328, g: 0.5187802, b: 0.5573298, a: 1}
  - m_RefCount: 0
    m_Data: {r: 0.9439061, g: 0.5446183, b: 0.54526055, a: 1}
  - m_RefCount: 0
    m_Data: {r: 0.9342974, g: 0.532727, b: 0.595832, a: 1}
  - m_RefCount: 0
    m_Data: {r: 0.9930589, g: 0.43906975, b: 0.5746164, a: 1}
  - m_RefCount: 0
    m_Data: {r: 0.7111992, g: 0.40333477, b: 0.5008334, a: 1}
  - m_RefCount: 0
    m_Data: {r: 0.9393275, g: 0.49133086, b: 0.6073004, a: 1}
  - m_RefCount: 0
    m_Data: {r: 0.8061012, g: 0.54374725, b: 0.55355877, a: 1}
  - m_RefCount: 0
    m_Data: {r: 0.9339695, g: 0.41266692, b: 0.4936909, a: 1}
  - m_RefCount: 0
    m_Data: {r: 0.7306306, g: 0.33318728, b: 0.43737507, a: 1}
  - m_RefCount: 0
    m_Data: {r: 0.8711049, g: 0.3975023, b: 0.5282338, a: 1}
  - m_RefCount: 0
    m_Data: {r: 0.7552936, g: 0.48910433, b: 0.49817875, a: 1}
  m_AnimationFrameRate: 1
  m_Color: {r: 1, g: 1, b: 1, a: 1}
  m_Origin: {x: -12, y: -16, z: 0}
  m_Size: {x: 24, y: 26, z: 1}
  m_TileAnchor: {x: 0.5, y: 0.5, z: 0}
  m_TileOrientation: 0
  m_TileOrientationMatrix:
    e00: 1
    e01: 0
    e02: 0
    e03: 0
    e10: 0
    e11: 1
    e12: 0
    e13: 0
    e20: 0
    e21: 0
    e22: 1
    e23: 0
    e30: 0
    e31: 0
    e32: 0
    e33: 1
--- !u!483693784 &1599730214535631790
TilemapRenderer:
  m_ObjectHideFlags: 0
  m_CorrespondingSourceObject: {fileID: 0}
  m_PrefabInstance: {fileID: 0}
  m_PrefabAsset: {fileID: 0}
  m_GameObject: {fileID: 3107525950305842841}
  m_Enabled: 0
  m_CastShadows: 0
  m_ReceiveShadows: 0
  m_DynamicOccludee: 0
  m_MotionVectors: 1
  m_LightProbeUsage: 0
  m_ReflectionProbeUsage: 0
  m_RenderingLayerMask: 1
  m_RendererPriority: 0
  m_Materials:
  - {fileID: 10754, guid: 0000000000000000f000000000000000, type: 0}
  m_StaticBatchInfo:
    firstSubMesh: 0
    subMeshCount: 0
  m_StaticBatchRoot: {fileID: 0}
  m_ProbeAnchor: {fileID: 0}
  m_LightProbeVolumeOverride: {fileID: 0}
  m_ScaleInLightmap: 1
  m_PreserveUVs: 0
  m_IgnoreNormalsForChartDetection: 0
  m_ImportantGI: 0
  m_StitchLightmapSeams: 1
  m_SelectedEditorRenderState: 0
  m_MinimumChartSize: 4
  m_AutoUVMaxDistance: 0.5
  m_AutoUVMaxAngle: 89
  m_LightmapParameters: {fileID: 0}
  m_SortingLayerID: 0
  m_SortingLayer: 0
  m_SortingOrder: 0
  m_ChunkSize: {x: 32, y: 32, z: 32}
  m_ChunkCullingBounds: {x: 0, y: 0, z: 0}
  m_MaxChunkCount: 16
  m_MaxFrameAge: 16
  m_SortOrder: 0
  m_Mode: 0
  m_DetectChunkCullingBounds: 0
  m_MaskInteraction: 0
--- !u!1 &8967064723998834768
GameObject:
  m_ObjectHideFlags: 0
  m_CorrespondingSourceObject: {fileID: 0}
  m_PrefabInstance: {fileID: 0}
  m_PrefabAsset: {fileID: 0}
  serializedVersion: 6
  m_Component:
  - component: {fileID: 7772489583876624887}
  - component: {fileID: 7830436975806849204}
  m_Layer: 31
  m_Name: Weapons and Armors
  m_TagString: Untagged
  m_Icon: {fileID: 0}
  m_NavMeshLayer: 0
  m_StaticEditorFlags: 0
  m_IsActive: 1
--- !u!4 &7772489583876624887
Transform:
  m_ObjectHideFlags: 0
  m_CorrespondingSourceObject: {fileID: 0}
  m_PrefabInstance: {fileID: 0}
  m_PrefabAsset: {fileID: 0}
  m_GameObject: {fileID: 8967064723998834768}
  m_LocalRotation: {x: 0, y: 0, z: 0, w: 1}
  m_LocalPosition: {x: 0, y: 0, z: 0}
  m_LocalScale: {x: 1, y: 1, z: 1}
  m_Children:
  - {fileID: 1779972321733849159}
  m_Father: {fileID: 0}
  m_RootOrder: 0
  m_LocalEulerAnglesHint: {x: 0, y: 0, z: 0}
--- !u!156049354 &7830436975806849204
Grid:
  m_ObjectHideFlags: 0
  m_CorrespondingSourceObject: {fileID: 0}
  m_PrefabInstance: {fileID: 0}
  m_PrefabAsset: {fileID: 0}
  m_GameObject: {fileID: 8967064723998834768}
  m_Enabled: 1
  m_CellSize: {x: 1, y: 1, z: 0}
  m_CellGap: {x: 0, y: 0, z: 0}
  m_CellLayout: 0
  m_CellSwizzle: 0
--- !u!114 &-2412445822085225027
MonoBehaviour:
  m_ObjectHideFlags: 0
  m_CorrespondingSourceObject: {fileID: 0}
  m_PrefabInstance: {fileID: 0}
  m_PrefabAsset: {fileID: 0}
  m_GameObject: {fileID: 0}
  m_Enabled: 1
  m_EditorHideFlags: 0
  m_Script: {fileID: 12395, guid: 0000000000000000e000000000000000, type: 0}
  m_Name: Palette Settings
  m_EditorClassIdentifier: 
  cellSizing: 0
